603 Class Project 1
…
Rows: 15266 Columns: 6
── Column specification ────────────────────────────────────────────────────────
Delimiter: ","
chr (1): era
dbl (5): year, age, sex, race, fehelp

ℹ Use `spec()` to retrieve the full column specification for this data.
ℹ Specify the column types or set `show_col_types = FALSE` to quiet this message.

Code

GSS

# A tibble: 15,266 × 6
    year   age   sex  race fehelp era  
   <dbl> <dbl> <dbl> <dbl>  <dbl> <chr>
 1  1977    63     2     1      2 2    
 2  1977    31     2     1      1 .i   
 3  1977    66     1     1      1 2    
 4  1977    26     1     1      4 1    
 5  1977    20     2     1      3 2    
 6  1977    36     1     1      3 2    
 7  1977    77     2     1      2 2    
 8  1977    35     2     1      1 2    
 9  1977    85     2     1      3 .d   
10  1977    44     2     1      3 2    
# … with 15,256 more rows
…
