Landreth Descriptive Project
…
                  sd(client_sat), 
                  n())

`summarise()` has grouped output by 'client_sat'. You can override using the
`.groups` argument.

Code

#print the results to the console
print(avgs_sat)

# A tibble: 910 × 5
# Groups:   client_sat [97]
   client_sat hrs_working `mean(client_sat)` `sd(client_sat)` `n()`
        <int>       <int>              <dbl>            <dbl> <int>
 1          0          36                  0               NA     1
 2          0          45                  0               NA     1
 3          1          29                  1               NA     1
 4          1          74                  1               NA     1
 5          3          37                  3               NA     1
 6          5          52                  5               NA     1
 7          6          45                  6               NA     1
 8          7          64                  7               NA     1
 9          9          60                  9               NA     1
10         10          30                 10               NA     1
# … with 900 more rows
…
avgs_work <- JP_Clean %>% 
        group_by(client_sat, hrs_working) %>% 
        summarize(mean(hrs_working), 
                  sd(hrs_working), 
                  n())

`summarise()` has grouped output by 'client_sat'. You can override using the
`.groups` argument.

Code

# print the results to the console
print(avgs_work)

# A tibble: 910 × 5
# Groups:   client_sat [97]
   client_sat hrs_working `mean(hrs_working)` `sd(hrs_working)` `n()`
        <int>       <int>               <dbl>             <dbl> <int>
 1          0          36                  36                NA     1
 2          0          45                  45                NA     1
 3          1          29                  29                NA     1
 4          1          74                  74                NA     1
 5          3          37                  37                NA     1
 6          5          52                  52                NA     1
 7          6          45                  45                NA     1
 8          7          64                  64                NA     1
 9          9          60                  60                NA     1
10         10          30                  30                NA     1
# … with 900 more rows
…
