Kruzlic Class Project 2
…
top10s <-na.omit(top10s)

Grouping and Analysis- Defining and Representing Variables

Top Artists

This below chart represents the artists with the highest number of charting songs between 2010 and 2019.

Code

pop_artist <- top10s%>%arrange(desc(pop))%>%group_by(artist)
pop_artist

# A tibble: 596 × 16
# Groups:   artist [181]
    ...1 title   artist variable genre  year   bpm  nrgy  dnce    dB  live   val
   <dbl> <chr>   <chr>  <chr>    <chr> <dbl> <dbl> <dbl> <dbl> <dbl> <dbl> <dbl>
 1   573 "Memor… Maroo… pop      pop    2019    91    32    76    -7     8    57
 2   574 "Lose … Selen… dance    pop    2019   102    34    51    -9    21     9
 3   575 "Someo… Lewis… pop      pop    2019   110    41    50    -6    11    45
 4   576 "Se\xf… Shawn… canadian pop    2019   117    54    76    -6     9    75
 5   577 "How D… Sam S… pop      pop    2019   111    68    48    -5     8    35
 6   578 "South… Ed Sh… pop      pop    2019    98    62    86    -6     9    67
 7   579 "Tramp… SHAED  electro… pop    2019   127    46    62    -6    14    50
 8   580 "Happi… Marsh… brostep  other  2019   100    79    69    -3    17    67
 9   581 "Truth… Lizzo  escape   other  2019   158    62    72    -3    12    41
10   582 "Good … Lizzo  escape   other  2019    96    89    67    -3    74    48
# ℹ 586 more rows
# ℹ 4 more variables: dur <dbl>, acous <dbl>, spch <dbl>, pop <dbl>
…
colnames(summarized_data_genre) <- c("Song Genre", "Average Song Duration")
view(dur_genre)

Error in view(dur_genre): object 'dur_genre' not found

Most and Least Popular Songs

Code

max_pop <-top10s%>%filter(pop>=60)%>%select(artist,pop,title,genre)%>%arrange(desc(pop))
max_pop

# A tibble: 448 × 4
   artist          pop title                                               genre
   <chr>         <dbl> <chr>                                               <chr>
 1 Maroon 5         99 "Memories"                                          pop  
 2 Selena Gomez     97 "Lose You To Love Me"                               pop  
 3 Lewis Capaldi    96 "Someone You Loved"                                 pop  
 4 Shawn Mendes     95 "Se\xf1orita"                                       pop  
 5 Sam Smith        93 "How Do You Sleep?"                                 pop  
 6 Ed Sheeran       92 "South of the Border (feat. Camila Cabello & Cardi… pop  
 7 SHAED            92 "Trampoline (with ZAYN)"                            pop  
 8 Marshmello       90 "Happier"                                           other
 9 Lizzo            90 "Truth Hurts"                                       other
10 Lizzo            90 "Good as Hell (feat. Ariana Grande) - Remix"        other
# ℹ 438 more rows

Code

min_pop <-top10s%>%filter(pop<=59)%>%select(artist,pop,title,genre)%>%arrange(desc(pop))
min_pop

# A tibble: 148 × 4
   artist                pop title                                         genre
   <chr>               <dbl> <chr>                                         <chr>
 1 Adam Lambert           59 If I Had You                                  pop  
 2 The Black Eyed Peas    59 Rock That Body                                pop  
 3 Britney Spears         59 Hold It Against Me                            pop  
 4 Jennifer Lopez         59 I'm Into You                                  pop  
 5 Pitbull                59 Don't Stop the Party (feat. TJR)              pop  
 6 Alicia Keys            59 Girl On Fire (feat. Nicki Minaj) - Inferno V… hip …
 7 Pharrell Williams      59 Come Get It Bae                               pop  
 8 Lost Frequencies       59 Reality (feat. Janieck Devy) - Radio Edit     edm  
 9 Fifth Harmony          59 Angel                                         pop  
10 Little Mix             59 Touch (feat. Kid Ink)                         pop  
# ℹ 138 more rows
…
Code

var2_pdf <- density(top10s$dur)
var2_pdf <- prop.table(table(top10s$dur))
var2_cdf <- cumsum(top10s$dur)

var2_pdf <- prop.table(table(top10s$dur))
var2_cdf <- cumsum(var2_pdf)
var2_pdf_cdf <- data.frame(Duration = unique(top10s$dur),
                      Probability = var2_pdf,
                      Cumulative = var2_cdf)

tibble(var2_pdf_cdf)

# A tibble: 144 × 4
   Duration Probability.Var1 Probability.Freq Cumulative
      <dbl> <fct>                       <dbl>      <dbl>
 1      217 134                       0.00168    0.00168
 2      263 148                       0.00168    0.00336
 3      200 157                       0.00168    0.00503
 4      295 158                       0.00168    0.00671
 5      221 159                       0.00336    0.0101 
 6      214 160                       0.00168    0.0117 
 7      203 162                       0.00168    0.0134 
 8      225 164                       0.00168    0.0151 
 9      216 166                       0.00168    0.0168 
10      235 169                       0.00336    0.0201 
# ℹ 134 more rows
…
